…
    ## Rows: 10 Columns: 11
    ## ── Column specification ────────────────────────────────────────────────────────
    ## Delimiter: ","
    ## dbl (11): Episode, Series 1, Series 2, Series 3, Series 4, Series 5, Series ...
    ## 
    ## ℹ Use `spec()` to retrieve the full column specification for this data.
    ## ℹ Specify the column types or set `show_col_types = FALSE` to quiet this message.

check and correct tables

``` r
anti_join(bakers, bakes, by = "first_name")
```

    ## # A tibble: 23 × 6
    ##    first_name last_name       series baker_age baker_occupation         hometown
    ##    <chr>      <chr>            <dbl>     <dbl> <chr>                    <chr>   
    ##  1 Alice      Fevronia            10        28 Geography teacher        Essex   
    ##  2 Amelia     LeBruin             10        24 Fashion designer         Halifax 
    ##  3 Antony     Amourdoux            9        30 Banker                   London  
    ##  4 Briony     Williams             9        33 Full-time parent         Bristol 
    ##  5 Dan        Beasley-Harling      9        36 Full-time parent         London  
    ##  6 Dan        Chambers            10        32 Support worker           Rotherh…
    ##  7 Helena     Garcia              10        40 Online project manager   Leeds   
    ##  8 Henry      Bird                10        20 Student                  Durham  
    ##  9 Imelda     McCarron             9        33 Countryside recreation … County …
    ## 10 Jamie      Finn                10        20 Part-time waiter         Surrey  
    ## # ℹ 13 more rows
…
``` r
anti_join(bakes, results, by = c("series", "episode"))
```

    ## # A tibble: 0 × 5
    ## # ℹ 5 variables: series <dbl>, episode <dbl>, first_name <chr>,
    ## #   signature_bake <chr>, show_stopper <chr>

``` r
bakers|>
  mutate(first_name = ifelse(first_name == "Jo","Joanne", first_name))
```

    ## # A tibble: 120 × 6
    ##    first_name last_name   series baker_age baker_occupation             hometown
    ##    <chr>      <chr>        <dbl>     <dbl> <chr>                        <chr>   
    ##  1 Ali        Imdad            4        25 Charity worker               Saltley…
    ##  2 Alice      Fevronia        10        28 Geography teacher            Essex   
    ##  3 Alvin      Magallanes       6        37 Nurse                        Brackne…
    ##  4 Amelia     LeBruin         10        24 Fashion designer             Halifax 
    ##  5 Andrew     Smyth            7        25 Aerospace engineer           Derby /…
    ##  6 Annetha    Mills            1        30 Midwife                      Essex   
    ##  7 Antony     Amourdoux        9        30 Banker                       London  
    ##  8 Beca       Lyne-Pirkis      4        31 Military Wives' Choir Singer Aldersh…
    ##  9 Ben        Frazer           2        31 Graphic Designer             Northam…
    ## 10 Benjamina  Ebuehi           7        23 Teaching assistant           South L…
    ## # ℹ 110 more rows
…
